{"name":"Consult users administrator","id":"consult-list-users;consult-users-administrator","testSteps":[{"number":1,"description":"Given the login in the application with administrator role","duration":3152,"startTime":"2021-03-15T21:23:54.653-05:00[America/Bogota]","result":"SUCCESS","precondition":false,"children":[{"number":2,"description":"Administrator login to","duration":2935,"startTime":"2021-03-15T21:23:54.869-05:00[America/Bogota]","result":"SUCCESS","precondition":false,"children":[{"number":3,"description":"administrator executes a POST on the resource /users/sessions","duration":2869,"startTime":"2021-03-15T21:23:54.929-05:00[America/Bogota]","result":"SUCCESS","precondition":false,"children":[{"number":4,"description":"POST https://nodejs-qa-training.herokuapp.com/users/sessions\r\r","duration":1,"startTime":"2021-03-15T21:23:57.795-05:00[America/Bogota]","result":"SUCCESS","restQuery":{"method":"POST","path":"https://nodejs-qa-training.herokuapp.com/users/sessions\r\r","content":"{\n    \"email\": \"admin@wolox.com.ar\",\n    \"password\": \"candidatoWolox2020\"\n}\r","contentType":"application/json","requestHeaders":"Accept\u003d*/*\r\n\t\t\t\tContent-Type\u003dapplication/json; charset\u003dUTF-8\r\r","requestCookies":"\r\r","responseHeaders":"Server: Cowboy\nConnection: keep-alive\nX-Powered-By: Express\nAuthorization: eyJ0eXAiOiJKV1QiLCJhbGciOiJIUzI1NiJ9.eyJ1c2VySWQiOjE0Niwicm9sZSI6ImFkbWluIiwiaWF0IjoxNjE1ODYxNDM4LjQ3NiwiZXhwIjoxNjE1ODYzMjM4LjQ3Nn0.PQalRjYZqmhXgE3QutbtQYoyd5fZyzaH1b47FsRgHq4\nContent-Type: application/json; charset\u003dutf-8\nContent-Length: 51\nEtag: W/\"33-vaJdwdMche7lsuSUPJIUQlqMKSs\"\nDate: Tue, 16 Mar 2021 02:23:58 GMT\nVia: 1.1 vegur\r","responseCookies":"\r","responseBody":"{\n    \"user_id\": 146,\n    \"token_expires_at\": \"1615863238.476\"\n}","statusCode":200},"precondition":false}]}]}]},{"number":5,"description":"When consult the user list","duration":562,"startTime":"2021-03-15T21:23:57.805-05:00[America/Bogota]","result":"SUCCESS","precondition":false,"children":[{"number":6,"description":"Administrator consult","duration":556,"startTime":"2021-03-15T21:23:57.810-05:00[America/Bogota]","result":"SUCCESS","precondition":false,"children":[{"number":7,"description":"administrator executes a GET on the resource /users","duration":538,"startTime":"2021-03-15T21:23:57.825-05:00[America/Bogota]","result":"SUCCESS","precondition":false,"children":[{"number":8,"description":"GET https://nodejs-qa-training.herokuapp.com/users\r\r","duration":0,"startTime":"2021-03-15T21:23:58.363-05:00[America/Bogota]","result":"SUCCESS","restQuery":{"method":"GET","path":"https://nodejs-qa-training.herokuapp.com/users\r\r","content":"\r","contentType":"application/json","requestHeaders":"Authorization\u003deyJ0eXAiOiJKV1QiLCJhbGciOiJIUzI1NiJ9.eyJ1c2VySWQiOjE0Niwicm9sZSI6ImFkbWluIiwiaWF0IjoxNjE1ODYxNDM4LjQ3NiwiZXhwIjoxNjE1ODYzMjM4LjQ3Nn0.PQalRjYZqmhXgE3QutbtQYoyd5fZyzaH1b47FsRgHq4\r\n\t\t\t\tAccept\u003d*/*\r\n\t\t\t\tContent-Type\u003dapplication/json; charset\u003dUTF-8\r\r","requestCookies":"\r\r","responseHeaders":"Server: Cowboy\nConnection: keep-alive\nX-Powered-By: Express\nContent-Type: application/json; charset\u003dutf-8\nContent-Length: 1067\nEtag: W/\"42b-6KXOzYcxl7kKu1/6zJYWvDpFeYw\"\nDate: Tue, 16 Mar 2021 02:23:59 GMT\nVia: 1.1 vegur\r","responseCookies":"\r","responseBody":"{\n    \"total_count\": 136,\n    \"count\": 10,\n    \"total_pages\": 14,\n    \"limit\": 10,\n    \"offset\": 0,\n    \"current_page\": 1,\n    \"page\": [\n        {\n            \"first_name\": \"Hernan\",\n            \"last_name\": \"Garcia98\",\n            \"email\": \"hernan003@wolox.com.ar\",\n            \"role\": \"regular\"\n        },\n        {\n            \"first_name\": \"Hernan\",\n            \"last_name\": \"Garcia\",\n            \"email\": \"hernan000@wolox.com.ar\",\n            \"role\": \"regular\"\n        },\n        {\n            \"first_name\": \"Hernan\",\n            \"last_name\": \"Garcia\",\n            \"email\": \"h6@wolox.com.ar\",\n            \"role\": \"regular\"\n        },\n        {\n            \"first_name\": \"Jose Antonio\",\n            \"last_name\": \"Bermudez\",\n            \"email\": \"jose.beruda@wolox.com.ar\",\n            \"role\": \"regular\"\n        },\n        {\n            \"first_name\": \"Juan\",\n            \"last_name\": \"Perez\",\n            \"email\": \"jperez@wolox.com.ar\",\n            \"role\": \"regular\"\n        },\n        {\n            \"first_name\": \"Hernan\",\n            \"last_name\": \"Garcia\",\n            \"email\": \"h7@wolox.com.ar\",\n            \"role\": \"regular\"\n        },\n        {\n            \"first_name\": \"Hernan01\",\n            \"last_name\": \"Garcia\",\n            \"email\": \"hernan0x2@wolox.com.ar\",\n            \"role\": \"regular\"\n        },\n        {\n            \"first_name\": \"Juan\",\n            \"last_name\": \"Per2ez\",\n            \"email\": \"jperwez@wolox.com.ar\",\n            \"role\": \"regular\"\n        },\n        {\n            \"first_name\": \"Ju4an\",\n            \"last_name\": \"Per2ez\",\n            \"email\": \"jperwetz@wolox.com.ar\",\n            \"role\": \"regular\"\n        },\n        {\n            \"first_name\": \"45543\",\n            \"last_name\": \"Per2ez\",\n            \"email\": \"jpterwetz@wolox.com.ar\",\n            \"role\": \"regular\"\n        }\n    ],\n    \"previous_page\": null,\n    \"next_page\": 2\n}","statusCode":200},"precondition":false}]}]}]},{"number":9,"description":"Then the user validates that the information is displayed correctly","duration":92,"startTime":"2021-03-15T21:23:58.367-05:00[America/Bogota]","result":"SUCCESS","precondition":false,"children":[{"number":10,"description":"Then verify response code should be (200)","duration":2,"startTime":"2021-03-15T21:23:58.456-05:00[America/Bogota]","result":"SUCCESS","precondition":false}]},{"number":11,"description":"And the user validates json schema for user","duration":40,"startTime":"2021-03-15T21:23:58.459-05:00[America/Bogota]","exception":{"errorType":"org.everit.json.schema.ValidationException","message":"#: #/previous_page: expected type: Number, found: Null","stackTrace":[{"declaringClass":"org.everit.json.schema.ValidationException","methodName":"prepend","fileName":"ValidationException.java","lineNumber":214},{"declaringClass":"org.everit.json.schema.ValidationException","methodName":"prepend","fileName":"ValidationException.java","lineNumber":193},{"declaringClass":"org.everit.json.schema.ObjectSchema","methodName":"lambda$testProperties$7","fileName":"ObjectSchema.java","lineNumber":322},{"declaringClass":"org.everit.json.schema.ObjectSchema","methodName":"testProperties","fileName":"ObjectSchema.java","lineNumber":322},{"declaringClass":"org.everit.json.schema.ObjectSchema","methodName":"validate","fileName":"ObjectSchema.java","lineNumber":384},{"declaringClass":"com.nanofy.apis.stepdefinitions.LoginUserStepsDefinitions","methodName":"theUserValidatesJsonSchema","fileName":"LoginUserStepsDefinitions.java","lineNumber":68},{"declaringClass":"✽","methodName":"the user validates json schema for user","fileName":"src/test/resources/features/list_users.feature","lineNumber":11}]},"result":"ERROR","precondition":false}],"userStory":{"id":"consult-list-users","storyName":"Consult list users","path":"src/test/resources/features/list_users.feature","narrative":"  As a user of the Nanofy application\n  I want to consult the users\n  So verify personal data","type":"feature"},"featureTag":{"name":"Features/Consult list users","type":"feature"},"title":"Consult users administrator","tags":[{"name":"Consult list users","type":"feature"}],"startTime":"2021-03-15T21:23:54.364-05:00[America/Bogota]","duration":4136,"testFailureCause":{"errorType":"org.everit.json.schema.ValidationException","message":"#: #/previous_page: expected type: Number, found: Null","stackTrace":[{"declaringClass":"org.everit.json.schema.ValidationException","methodName":"prepend","fileName":"ValidationException.java","lineNumber":214},{"declaringClass":"org.everit.json.schema.ValidationException","methodName":"prepend","fileName":"ValidationException.java","lineNumber":193},{"declaringClass":"org.everit.json.schema.ObjectSchema","methodName":"lambda$testProperties$7","fileName":"ObjectSchema.java","lineNumber":322},{"declaringClass":"org.everit.json.schema.ObjectSchema","methodName":"testProperties","fileName":"ObjectSchema.java","lineNumber":322},{"declaringClass":"org.everit.json.schema.ObjectSchema","methodName":"validate","fileName":"ObjectSchema.java","lineNumber":384},{"declaringClass":"com.nanofy.apis.stepdefinitions.LoginUserStepsDefinitions","methodName":"theUserValidatesJsonSchema","fileName":"LoginUserStepsDefinitions.java","lineNumber":68},{"declaringClass":"✽","methodName":"the user validates json schema for user","fileName":"src/test/resources/features/list_users.feature","lineNumber":11}]},"testFailureClassname":"org.everit.json.schema.ValidationException","testFailureMessage":"#: #/previous_page: expected type: Number, found: Null","testFailureSummary":"ERROR;org.everit.json.schema.ValidationException;#: #/previous_page: expected type: Number, found: Null;ValidationException.java","projectKey":"","annotatedResult":"ERROR","manual":false,"testSource":"Cucumber","actors":[{"name":"administrator","can":["browse the web with FIREFOX","call an API at https://nodejs-qa-training.herokuapp.com"]}],"result":"ERROR"}