{"name":"Consult users regular","id":"consult-list-users;consult-users-regular","testSteps":[{"number":1,"description":"Given the login in the application with regular role","duration":577,"startTime":"2021-03-15T21:23:58.576-05:00[America/Bogota]","result":"SUCCESS","precondition":false,"children":[{"number":2,"description":"Regular login to","duration":574,"startTime":"2021-03-15T21:23:58.579-05:00[America/Bogota]","result":"SUCCESS","precondition":false,"children":[{"number":3,"description":"regular executes a POST on the resource /users/sessions","duration":571,"startTime":"2021-03-15T21:23:58.581-05:00[America/Bogota]","result":"SUCCESS","precondition":false,"children":[{"number":4,"description":"POST https://nodejs-qa-training.herokuapp.com/users/sessions\r\r","duration":0,"startTime":"2021-03-15T21:23:59.151-05:00[America/Bogota]","result":"SUCCESS","restQuery":{"method":"POST","path":"https://nodejs-qa-training.herokuapp.com/users/sessions\r\r","content":"{\n    \"email\": \"regular@wolox.com.ar\",\n    \"password\": \"candidatoWolox2020\"\n}\r","contentType":"application/json","requestHeaders":"Accept\u003d*/*\r\n\t\t\t\tContent-Type\u003dapplication/json; charset\u003dUTF-8\r\r","requestCookies":"\r\r","responseHeaders":"Server: Cowboy\nConnection: keep-alive\nX-Powered-By: Express\nAuthorization: eyJ0eXAiOiJKV1QiLCJhbGciOiJIUzI1NiJ9.eyJ1c2VySWQiOjE0Nywicm9sZSI6InJlZ3VsYXIiLCJpYXQiOjE2MTU4NjE0MzkuODk0LCJleHAiOjE2MTU4NjMyMzkuODk0fQ.QJXg9QlIYIFUDhWUvJTdGDj-d912E_AzH61qsWoa4mc\nContent-Type: application/json; charset\u003dutf-8\nContent-Length: 51\nEtag: W/\"33-xb5KDqTWLVNVij2/Bt9OjTSW7Ww\"\nDate: Tue, 16 Mar 2021 02:23:59 GMT\nVia: 1.1 vegur\r","responseCookies":"\r","responseBody":"{\n    \"user_id\": 147,\n    \"token_expires_at\": \"1615863239.894\"\n}","statusCode":200},"precondition":false}]}]}]},{"number":5,"description":"When consult the user list","duration":538,"startTime":"2021-03-15T21:23:59.153-05:00[America/Bogota]","result":"SUCCESS","precondition":false,"children":[{"number":6,"description":"Regular consult","duration":535,"startTime":"2021-03-15T21:23:59.155-05:00[America/Bogota]","result":"SUCCESS","precondition":false,"children":[{"number":7,"description":"regular executes a GET on the resource /users","duration":531,"startTime":"2021-03-15T21:23:59.157-05:00[America/Bogota]","result":"SUCCESS","precondition":false,"children":[{"number":8,"description":"GET https://nodejs-qa-training.herokuapp.com/users\r\r","duration":1,"startTime":"2021-03-15T21:23:59.687-05:00[America/Bogota]","result":"SUCCESS","restQuery":{"method":"GET","path":"https://nodejs-qa-training.herokuapp.com/users\r\r","content":"\r","contentType":"application/json","requestHeaders":"Authorization\u003deyJ0eXAiOiJKV1QiLCJhbGciOiJIUzI1NiJ9.eyJ1c2VySWQiOjE0Nywicm9sZSI6InJlZ3VsYXIiLCJpYXQiOjE2MTU4NjE0MzkuODk0LCJleHAiOjE2MTU4NjMyMzkuODk0fQ.QJXg9QlIYIFUDhWUvJTdGDj-d912E_AzH61qsWoa4mc\r\n\t\t\t\tAccept\u003d*/*\r\n\t\t\t\tContent-Type\u003dapplication/json; charset\u003dUTF-8\r\r","requestCookies":"\r\r","responseHeaders":"Server: Cowboy\nConnection: keep-alive\nX-Powered-By: Express\nContent-Type: application/json; charset\u003dutf-8\nContent-Length: 1067\nEtag: W/\"42b-zldC5jmIpKgX82aK4t9fgxODKrE\"\nDate: Tue, 16 Mar 2021 02:24:00 GMT\nVia: 1.1 vegur\r","responseCookies":"\r","responseBody":"{\n    \"total_count\": 135,\n    \"count\": 10,\n    \"total_pages\": 14,\n    \"limit\": 10,\n    \"offset\": 0,\n    \"current_page\": 1,\n    \"page\": [\n        {\n            \"first_name\": \"Hernan\",\n            \"last_name\": \"Garcia98\",\n            \"email\": \"hernan003@wolox.com.ar\",\n            \"role\": \"regular\"\n        },\n        {\n            \"first_name\": \"Hernan\",\n            \"last_name\": \"Garcia\",\n            \"email\": \"hernan000@wolox.com.ar\",\n            \"role\": \"regular\"\n        },\n        {\n            \"first_name\": \"Hernan\",\n            \"last_name\": \"Garcia\",\n            \"email\": \"h6@wolox.com.ar\",\n            \"role\": \"regular\"\n        },\n        {\n            \"first_name\": \"Jose Antonio\",\n            \"last_name\": \"Bermudez\",\n            \"email\": \"jose.beruda@wolox.com.ar\",\n            \"role\": \"regular\"\n        },\n        {\n            \"first_name\": \"Juan\",\n            \"last_name\": \"Perez\",\n            \"email\": \"jperez@wolox.com.ar\",\n            \"role\": \"regular\"\n        },\n        {\n            \"first_name\": \"Hernan\",\n            \"last_name\": \"Garcia\",\n            \"email\": \"h7@wolox.com.ar\",\n            \"role\": \"regular\"\n        },\n        {\n            \"first_name\": \"Hernan01\",\n            \"last_name\": \"Garcia\",\n            \"email\": \"hernan0x2@wolox.com.ar\",\n            \"role\": \"regular\"\n        },\n        {\n            \"first_name\": \"Juan\",\n            \"last_name\": \"Per2ez\",\n            \"email\": \"jperwez@wolox.com.ar\",\n            \"role\": \"regular\"\n        },\n        {\n            \"first_name\": \"Ju4an\",\n            \"last_name\": \"Per2ez\",\n            \"email\": \"jperwetz@wolox.com.ar\",\n            \"role\": \"regular\"\n        },\n        {\n            \"first_name\": \"45543\",\n            \"last_name\": \"Per2ez\",\n            \"email\": \"jpterwetz@wolox.com.ar\",\n            \"role\": \"regular\"\n        }\n    ],\n    \"previous_page\": null,\n    \"next_page\": 2\n}","statusCode":200},"precondition":false}]}]}]},{"number":9,"description":"Then the user validates that the information is displayed correctly","duration":2,"startTime":"2021-03-15T21:23:59.691-05:00[America/Bogota]","result":"SUCCESS","precondition":false,"children":[{"number":10,"description":"Then verify response code should be (200)","duration":0,"startTime":"2021-03-15T21:23:59.692-05:00[America/Bogota]","result":"SUCCESS","precondition":false}]},{"number":11,"description":"And validate the role of returned users","duration":289,"startTime":"2021-03-15T21:23:59.693-05:00[America/Bogota]","result":"SUCCESS","precondition":false,"children":[{"number":12,"description":"Then verify role should be not a string containing \u0027admin\u0027","duration":284,"startTime":"2021-03-15T21:23:59.697-05:00[America/Bogota]","result":"SUCCESS","precondition":false}]}],"userStory":{"id":"consult-list-users","storyName":"Consult list users","path":"src/test/resources/features/list_users.feature","narrative":"  As a user of the Nanofy application\n  I want to consult the users\n  So verify personal data","type":"feature"},"featureTag":{"name":"Features/Consult list users","type":"feature"},"title":"Consult users regular","tags":[{"name":"Consult list users","type":"feature"}],"startTime":"2021-03-15T21:23:58.574-05:00[America/Bogota]","duration":1408,"projectKey":"","manual":false,"testSource":"Cucumber","actors":[{"name":"regular","can":["browse the web with FIREFOX","call an API at https://nodejs-qa-training.herokuapp.com"]}],"result":"SUCCESS"}