{"name":"Consult users with registered users","id":"consult-list-users;consult-users-with-registered-users","testSteps":[{"number":1,"description":"Example #1: {email\u003dPruebawlx@wolox.com.ar, password\u003d1234*SSaa}","duration":1183,"startTime":"2021-03-15T21:23:59.997-05:00[America/Bogota]","result":"SUCCESS","precondition":false,"children":[{"number":2,"description":"Given the user wants to login to the application","duration":6,"startTime":"2021-03-15T21:23:59.999-05:00[America/Bogota]","result":"SUCCESS","precondition":false},{"number":3,"description":"When The user login with the data\r\n| email | password |\r\n| Pruebawlx@wolox.com.ar | 1234*SSaa |","duration":656,"startTime":"2021-03-15T21:24:00.006-05:00[America/Bogota]","result":"SUCCESS","precondition":false,"children":[{"number":4,"description":"User login to","duration":639,"startTime":"2021-03-15T21:24:00.022-05:00[America/Bogota]","result":"SUCCESS","precondition":false,"children":[{"number":5,"description":"user executes a POST on the resource /users/sessions","duration":636,"startTime":"2021-03-15T21:24:00.024-05:00[America/Bogota]","result":"SUCCESS","precondition":false,"children":[{"number":6,"description":"POST https://nodejs-qa-training.herokuapp.com/users/sessions\r\r","duration":0,"startTime":"2021-03-15T21:24:00.660-05:00[America/Bogota]","result":"SUCCESS","restQuery":{"method":"POST","path":"https://nodejs-qa-training.herokuapp.com/users/sessions\r\r","content":"{\n    \"email\": \"Pruebawlx@wolox.com.ar\",\n    \"password\": \"1234*SSaa\"\n}\r","contentType":"application/json","requestHeaders":"Accept\u003d*/*\r\n\t\t\t\tContent-Type\u003dapplication/json; charset\u003dUTF-8\r\r","requestCookies":"\r\r","responseHeaders":"Server: Cowboy\nConnection: keep-alive\nX-Powered-By: Express\nAuthorization: eyJ0eXAiOiJKV1QiLCJhbGciOiJIUzI1NiJ9.eyJ1c2VySWQiOjQ5OCwicm9sZSI6InJlZ3VsYXIiLCJpYXQiOjE2MTU4NjE0NDEuMzkyLCJleHAiOjE2MTU4NjMyNDEuMzkyfQ.VZcJ2BCWTTWTe5o9-pFixJIdjB4L0mO0jsAjnC9xAJI\nContent-Type: application/json; charset\u003dutf-8\nContent-Length: 51\nEtag: W/\"33-bDhIJcoWHakC7tblsY4RV/2X54I\"\nDate: Tue, 16 Mar 2021 02:24:01 GMT\nVia: 1.1 vegur\r","responseCookies":"\r","responseBody":"{\n    \"user_id\": 498,\n    \"token_expires_at\": \"1615863241.392\"\n}","statusCode":200},"precondition":false}]}]}]},{"number":7,"description":"And consult the user list","duration":516,"startTime":"2021-03-15T21:24:00.662-05:00[America/Bogota]","result":"SUCCESS","precondition":false,"children":[{"number":8,"description":"User consult","duration":514,"startTime":"2021-03-15T21:24:00.664-05:00[America/Bogota]","result":"SUCCESS","precondition":false,"children":[{"number":9,"description":"user executes a GET on the resource /users","duration":509,"startTime":"2021-03-15T21:24:00.666-05:00[America/Bogota]","result":"SUCCESS","precondition":false,"children":[{"number":10,"description":"GET https://nodejs-qa-training.herokuapp.com/users\r\r","duration":0,"startTime":"2021-03-15T21:24:01.175-05:00[America/Bogota]","result":"SUCCESS","restQuery":{"method":"GET","path":"https://nodejs-qa-training.herokuapp.com/users\r\r","content":"\r","contentType":"application/json","requestHeaders":"Authorization\u003deyJ0eXAiOiJKV1QiLCJhbGciOiJIUzI1NiJ9.eyJ1c2VySWQiOjQ5OCwicm9sZSI6InJlZ3VsYXIiLCJpYXQiOjE2MTU4NjE0NDEuMzkyLCJleHAiOjE2MTU4NjMyNDEuMzkyfQ.VZcJ2BCWTTWTe5o9-pFixJIdjB4L0mO0jsAjnC9xAJI\r\n\t\t\t\tAccept\u003d*/*\r\n\t\t\t\tContent-Type\u003dapplication/json; charset\u003dUTF-8\r\r","requestCookies":"\r\r","responseHeaders":"Server: Cowboy\nConnection: keep-alive\nX-Powered-By: Express\nContent-Type: application/json; charset\u003dutf-8\nContent-Length: 1067\nEtag: W/\"42b-zldC5jmIpKgX82aK4t9fgxODKrE\"\nDate: Tue, 16 Mar 2021 02:24:01 GMT\nVia: 1.1 vegur\r","responseCookies":"\r","responseBody":"{\n    \"total_count\": 135,\n    \"count\": 10,\n    \"total_pages\": 14,\n    \"limit\": 10,\n    \"offset\": 0,\n    \"current_page\": 1,\n    \"page\": [\n        {\n            \"first_name\": \"Hernan\",\n            \"last_name\": \"Garcia98\",\n            \"email\": \"hernan003@wolox.com.ar\",\n            \"role\": \"regular\"\n        },\n        {\n            \"first_name\": \"Hernan\",\n            \"last_name\": \"Garcia\",\n            \"email\": \"hernan000@wolox.com.ar\",\n            \"role\": \"regular\"\n        },\n        {\n            \"first_name\": \"Hernan\",\n            \"last_name\": \"Garcia\",\n            \"email\": \"h6@wolox.com.ar\",\n            \"role\": \"regular\"\n        },\n        {\n            \"first_name\": \"Jose Antonio\",\n            \"last_name\": \"Bermudez\",\n            \"email\": \"jose.beruda@wolox.com.ar\",\n            \"role\": \"regular\"\n        },\n        {\n            \"first_name\": \"Juan\",\n            \"last_name\": \"Perez\",\n            \"email\": \"jperez@wolox.com.ar\",\n            \"role\": \"regular\"\n        },\n        {\n            \"first_name\": \"Hernan\",\n            \"last_name\": \"Garcia\",\n            \"email\": \"h7@wolox.com.ar\",\n            \"role\": \"regular\"\n        },\n        {\n            \"first_name\": \"Hernan01\",\n            \"last_name\": \"Garcia\",\n            \"email\": \"hernan0x2@wolox.com.ar\",\n            \"role\": \"regular\"\n        },\n        {\n            \"first_name\": \"Juan\",\n            \"last_name\": \"Per2ez\",\n            \"email\": \"jperwez@wolox.com.ar\",\n            \"role\": \"regular\"\n        },\n        {\n            \"first_name\": \"Ju4an\",\n            \"last_name\": \"Per2ez\",\n            \"email\": \"jperwetz@wolox.com.ar\",\n            \"role\": \"regular\"\n        },\n        {\n            \"first_name\": \"45543\",\n            \"last_name\": \"Per2ez\",\n            \"email\": \"jpterwetz@wolox.com.ar\",\n            \"role\": \"regular\"\n        }\n    ],\n    \"previous_page\": null,\n    \"next_page\": 2\n}","statusCode":200},"precondition":false}]}]}]},{"number":11,"description":"Then the user validates that the information is displayed correctly","duration":1,"startTime":"2021-03-15T21:24:01.179-05:00[America/Bogota]","result":"SUCCESS","precondition":false,"children":[{"number":12,"description":"Then verify response code should be (200)","duration":0,"startTime":"2021-03-15T21:24:01.180-05:00[America/Bogota]","result":"SUCCESS","precondition":false}]}]}],"userStory":{"id":"consult-list-users","storyName":"Consult list users","path":"src/test/resources/features/list_users.feature","narrative":"  As a user of the Nanofy application\n  I want to consult the users\n  So verify personal data","type":"feature"},"featureTag":{"name":"Features/Consult list users","type":"feature"},"title":"Consult users with registered users","tags":[{"name":"Consult list users","type":"feature"}],"startTime":"2021-03-15T21:23:59.994-05:00[America/Bogota]","duration":1186,"projectKey":"","dataTable":{"headers":["email","password"],"rows":[{"values":["Pruebawlx@wolox.com.ar","1234*SSaa"],"result":"SUCCESS"}],"predefinedRows":true,"scenarioOutline":"Given the user wants to login to the application\n\rWhen The user login with the data\n\rAnd consult the user list\n\rThen the user validates that the information is displayed correctly\n\r","dataSetDescriptors":[{"startRow":0,"rowCount":0,"name":""}]},"manual":false,"testSource":"Cucumber","actors":[{"name":"user","can":["browse the web with FIREFOX","call an API at https://nodejs-qa-training.herokuapp.com"]}],"result":"SUCCESS","scenarioOutline":"Given the user wants to login to the application\r\nWhen The user login with the data\r\n|email | password|\r\n|\u003cemail\u003e | \u003cpassword\u003e|\r\nAnd consult the user list\r\nThen the user validates that the information is displayed correctly"}